{
  "project_info": {
    "project_number": "257369017485",
    "firebase_url": "https://android-learning-33b5e.firebaseio.com",
    "project_id": "android-learning-33b5e",
    "storage_bucket": "android-learning-33b5e.appspot.com"
  },
  "client": [
    {
      "client_info": {
        "mobilesdk_app_id": "1:257369017485:android:4ffd99ddc1ffe5f37f26c4",
        "android_client_info": {
          "package_name": "com.shadowhite.android_learning"
        }
      },
      "oauth_client": [
        {
          "client_id": "257369017485-48hic3japa6qeuoafb4qe3fdi5hcgje1.apps.googleusercontent.com",
          "client_type": 1,
          "android_info": {
            "package_name": "com.shadowhite.android_learning",
            "certificate_hash": "4e07a9bf5ec6495ee65b84582fd57c6ddfffaa74"
          }
        },
        {
          "client_id": "257369017485-nbdudcis44i91ebq3t7garp8trp64qsq.apps.googleusercontent.com",
          "client_type": 3
        }
      ],
      "api_key": [
        {
          "current_key": "AIzaSyBFPvbcbY3-owh7mdlX4HXkWPP8QGQKxec"
        }
      ],
      "services": {
        "appinvite_service": {
          "other_platform_oauth_client": [
            {
              "client_id": "257369017485-nbdudcis44i91ebq3t7garp8trp64qsq.apps.googleusercontent.com",
              "client_type": 3
            }
          ]
        }
      }
    }
  ],
  "configuration_version": "1"
}